821123198127
730593013317
750649556150
171342554105
631167109115
140984552323
931627079240
371669406534
472028001500
352051435206
380725395508
170261064456
921698414437
531258281149
940937278421
571196238619
641662265052
960091378527
541329312235
980998396838
641271114639
301666274830
440754466331
511348052957
581389512725
771028481113
941776372016
921698414437
911297206611
301783381320
770454105959
482037152635
960260113210
461635359347
292372122330
190992573604
850660476632
911622094058
280332525153
200929037721
280167117306
280841425019
811317464619
321539345602
901680502131
450228083641
810752446720
590369243009
992095106231
200845337417
920035359545
440661532330
220258026449
960260113210
760298003827
771613412727
642213015125
381255577947
231521142927
810752446720
